%YAML 1.1
%TAG !u! tag:unity3d.com,2011:
--- !u!1 &7095531282157848632
GameObject:
  m_ObjectHideFlags: 0
  m_CorrespondingSourceObject: {fileID: 0}
  m_PrefabInstance: {fileID: 0}
  m_PrefabAsset: {fileID: 0}
  serializedVersion: 6
  m_Component:
  - component: {fileID: 7095531282157848634}
  - component: {fileID: 7095531282157848633}
  m_Layer: 0
  m_Name: Customer
  m_TagString: CUSTOMER
  m_Icon: {fileID: 0}
  m_NavMeshLayer: 0
  m_StaticEditorFlags: 0
  m_IsActive: 1
--- !u!4 &7095531282157848634
Transform:
  m_ObjectHideFlags: 0
  m_CorrespondingSourceObject: {fileID: 0}
  m_PrefabInstance: {fileID: 0}
  m_PrefabAsset: {fileID: 0}
  m_GameObject: {fileID: 7095531282157848632}
  m_LocalRotation: {x: 0, y: 0, z: 0, w: 1}
  m_LocalPosition: {x: 0, y: 0, z: 0}
  m_LocalScale: {x: 1, y: 1, z: 1}
  m_Children: []
  m_Father: {fileID: 0}
  m_RootOrder: 0
  m_LocalEulerAnglesHint: {x: 0, y: 0, z: 0}
--- !u!114 &7095531282157848633
MonoBehaviour:
  m_ObjectHideFlags: 0
  m_CorrespondingSourceObject: {fileID: 0}
  m_PrefabInstance: {fileID: 0}
  m_PrefabAsset: {fileID: 0}
  m_GameObject: {fileID: 7095531282157848632}
  m_Enabled: 1
  m_EditorHideFlags: 0
  m_Script: {fileID: 11500000, guid: d098cf8a076e54f4191f3e013e5fbfe8, type: 3}
  m_Name: 
  m_EditorClassIdentifier: 
  ProductList: {fileID: 0}
  TOTAL: {fileID: 0}
  TOTALSUM: {fileID: 0}
  CASHIN: {fileID: 0}
  CASHINSUM: {fileID: 0}
  CHANGE: {fileID: 0}
  CHANGESUM: {fileID: 0}
